<?xml version="1.0" encoding="UTF-8"?>
<session version="1.0">
<refactoring comment="Rename package &apos;com.phonethics.madhuridixit&apos; to &apos;com.phonethics.madhuridixitnene&apos;&#x0D;&#x0A;- Original project: &apos;MdSplashScreen&apos;&#x0D;&#x0A;- Original element: &apos;MdSplashScreen/src/com.phonethics.madhuridixit&apos;&#x0D;&#x0A;- Renamed element: &apos;MdSplashScreen/src/com.phonethics.madhuridixitnene&apos;&#x0D;&#x0A;- Update references to refactored element&#x0D;&#x0A;- Update textual occurrences in comments and strings" description="Rename package &apos;com.phonethics.madhuridixit&apos;" flags="589830" hierarchical="false" id="org.eclipse.jdt.ui.rename.package" input="/src&lt;com.phonethics.madhuridixit" name="com.phonethics.madhuridixitnene" qualified="false" references="true" stamp="1361544697786" textual="false" version="1.0"/>
</session>